{
    "transactions": [
        {
            "reel_id": "58",
            "entry_id": "1",
            "folio_page": "67D",
            "challenges": 1,
            "store_name": "colchester",
            "ledger_year": "1760/1761",
            "marginalia": "Virginia, Top Center",
            "comments": "Marginalia"
        },
        {
            "reel_id": "58",
            "entry_id": "2",
            "folio_page": "67D",
            "store_name": "colchester",
            "ledger_year": "1760/1761",
            "first_name": "moses ",
            "last_name": "hall",
            "transaction_type": "debit",
            "entry": ".5,Bushel,Salt,L1s3;     \r\n1,Pair,Mens,Shoes,L7s6;    \r\n.5,pound,gun powder,L1s6 ",
            "entry_type": "item",
            "transaction_date": "11-14-1760",
            "currency_type": [
                "virginia"
            ],
            "currency_measure": [
                "currency"
            ],
            "currency_parts": [
                ",10,3"
            ]
        },
        {
            "reel_id": "58",
            "entry_id": "3",
            "folio_page": "67D",
            "store_name": "colchester",
            "ledger_year": "1760/1761",
            "first_name": "moses ",
            "last_name": "hall",
            "transaction_type": "debit",
            "entry": "1,quart,,Rum,L1s6;    \r\n1,yard,,osnaburg,L1s;    \r\n2,pounds,,Sugar,L1s6 ",
            "entry_type": "item",
            "transaction_date": "11-14-1760",
            "currency_type": [
                "virginia"
            ],
            "currency_measure": [
                "currency"
            ],
            "currency_parts": [
                ",4,"
            ]
        },
        {
            "reel_id": "58",
            "entry_id": "4",
            "folio_page": "67D",
            "challenges": 1,
            "store_name": "colchester",
            "ledger_year": "1760/1761",
            "first_name": "moses ",
            "last_name": "hall",
            "transaction_type": "debit",
            "entry": "Total ",
            "entry_type": "other",
            "comments": "Account total",
            "year": "1760",
            "currency_type": [
                "virginia"
            ],
            "currency_measure": [
                "currency"
            ],
            "currency_parts": [
                ",14,3"
            ]
        },
        {
            "reel_id": "58",
            "entry_id": "5",
            "folio_page": "67D",
            "challenges": 1,
            "store_name": "colchester",
            "ledger_year": "1760/1761",
            "first_name": "charles",
            "last_name": "prestley",
            "transaction_type": "debit",
            "entry": "1,,Curry,Comb and brush,L3s6; Per brother    \r\n1,Gallon,,Rum,L6s;Per Self",
            "entry_type": "item",
            "comments": "Multiple items in one description (Comb,brush)\r\nPerson",
            "transaction_date": "11-14-1760",
            "currency_type": [
                "virginia"
            ],
            "currency_measure": [
                "currency"
            ],
            "currency_parts": [
                ",9,6"
            ]
        },
        {
            "reel_id": "58",
            "entry_id": "6",
            "folio_page": "67D",
            "store_name": "colchester",
            "ledger_year": "1760/1761",
            "first_name": "charles",
            "last_name": "prestley",
            "transaction_type": "debit",
            "original_entry": "1",
            "entry": "To .5 pound Shoe Thread Per Brother 1/6    December 9th  50 6d Nails 4d     150 8d Nails 1/3",
            "entry_type": "other",
            "transaction_date": "12-01-1760",
            "currency_type": [
                "virginia"
            ],
            "currency_measure": [
                "currency"
            ],
            "currency_parts": [
                ",3,1"
            ]
        },
        {
            "reel_id": "58",
            "entry_id": "6a",
            "folio_page": "67D",
            "challenges": 1,
            "store_name": "colchester",
            "ledger_year": "1760/1761",
            "first_name": "charles",
            "last_name": "prestley",
            "transaction_type": "debit",
            "entry": ".5,pound,Shoe,Thread,L1s6; \r\nPer Brother    ",
            "entry_type": "item",
            "comments": "Person",
            "transaction_date": "12-01-1760"
        },
        {
            "reel_id": "58",
            "entry_id": "6b",
            "folio_page": "67D",
            "store_name": "colchester",
            "ledger_year": "1760/1761",
            "first_name": "charles",
            "last_name": "prestley",
            "transaction_type": "debit",
            "entry": "50,,6d,Nails,Ls4;     \r\n150,,8d,Nails,L1s3",
            "entry_type": "item",
            "transaction_date": "12-09-1760"
        },
        {
            "reel_id": "58",
            "entry_id": "7",
            "folio_page": "67D",
            "store_name": "colchester",
            "ledger_year": "1760/1761",
            "first_name": "charles",
            "last_name": "prestley",
            "transaction_type": "debit",
            "original_entry": "1",
            "entry": "To 1 hank silk 1/:    December 20th  1 Bed Cord 2/6    December 24th  .5 Gallon Rum Per brother 3/3",
            "entry_type": "other",
            "transaction_date": "12-15-1760",
            "currency_type": [
                "virginia"
            ],
            "currency_measure": [
                "currency"
            ],
            "currency_parts": [
                ",6,9"
            ]
        },
        {
            "reel_id": "58",
            "entry_id": "7a",
            "folio_page": "67D",
            "store_name": "colchester",
            "ledger_year": "1760/1761",
            "first_name": "charles",
            "last_name": "prestley",
            "transaction_type": "debit",
            "entry": "1,hank,,silk,L1s",
            "entry_type": "item",
            "transaction_date": "12-15-1760"
        },
        {
            "reel_id": "58",
            "entry_id": "7b",
            "folio_page": "67D",
            "store_name": "colchester",
            "ledger_year": "1760/1761",
            "first_name": "charles",
            "last_name": "prestley",
            "transaction_type": "debit",
            "entry": "1,,,BedCord,L2s6   ",
            "entry_type": "item",
            "transaction_date": "12-20-1760"
        },
        {
            "reel_id": "58",
            "entry_id": "7c",
            "folio_page": "67D",
            "challenges": 1,
            "store_name": "colchester",
            "ledger_year": "1760/1761",
            "first_name": "charles",
            "last_name": "prestley",
            "transaction_type": "debit",
            "entry": ".5,Gallon,,Rum,L3s3;\r\nPer brother ",
            "entry_type": "item",
            "comments": "Person",
            "transaction_date": "12-24-1760"
        },
        {
            "reel_id": "58",
            "entry_id": "8",
            "folio_page": "67D",
            "store_name": "colchester",
            "ledger_year": "1760/1761",
            "first_name": "charles",
            "last_name": "prestley",
            "transaction_type": "debit",
            "original_entry": "1",
            "entry": "To 1 Bushel Salt 3/: Per order    January 17th 1 quart Brandy  Per brother 1/6",
            "entry_type": "other",
            "transaction_date": "01-10-1761",
            "currency_type": [
                "virginia"
            ],
            "currency_measure": [
                "currency"
            ],
            "currency_parts": [
                ",4,6"
            ]
        },
        {
            "reel_id": "58",
            "entry_id": "8a",
            "folio_page": "67D",
            "challenges": 1,
            "store_name": "colchester",
            "ledger_year": "1760/1761",
            "first_name": "charles",
            "last_name": "prestley",
            "transaction_type": "debit",
            "entry": "1,Bushel,,Salt,L3s;\r\nPer order    ",
            "entry_type": "item",
            "comments": "Per order",
            "transaction_date": "01-10-1761"
        },
        {
            "reel_id": "58",
            "entry_id": "8b",
            "folio_page": "67D",
            "challenges": 1,
            "store_name": "colchester",
            "ledger_year": "1760/1761",
            "first_name": "charles",
            "last_name": "prestley",
            "transaction_type": "debit",
            "entry": "1,quart,,Brandy,L1s6;\r\nPer brother",
            "entry_type": "item",
            "comments": "Person",
            "transaction_date": "01-17-1761"
        },
        {
            "reel_id": "58",
            "entry_id": "9",
            "folio_page": "67D",
            "store_name": "colchester",
            "ledger_year": "1760/1761",
            "first_name": "charles",
            "last_name": "prestley",
            "transaction_type": "debit",
            "original_entry": "1",
            "entry": "To 1 quart Brandy 1/6    January 20th To 1  hank silk 1/:    January 24th To 1 quart Brandy Per order 1/6",
            "entry_type": "other",
            "transaction_date": "01-19-1761",
            "currency_type": [
                "virginia"
            ],
            "currency_measure": [
                "currency"
            ],
            "currency_parts": [
                ",4,"
            ]
        },
        {
            "reel_id": "58",
            "entry_id": "9a",
            "folio_page": "67D",
            "store_name": "colchester",
            "ledger_year": "1760/1761",
            "first_name": "charles",
            "last_name": "prestley",
            "transaction_type": "debit",
            "entry": "1,quart,,Brandy,L1s6   ",
            "entry_type": "item",
            "transaction_date": "01-19-1761"
        },
        {
            "reel_id": "58",
            "entry_id": "9b",
            "folio_page": "67D",
            "store_name": "colchester",
            "ledger_year": "1760/1761",
            "first_name": "charles",
            "last_name": "prestley",
            "transaction_type": "debit",
            "entry": "1,hank,,silk,L1s    ",
            "entry_type": "item",
            "transaction_date": "01-20-1761"
        },
        {
            "reel_id": "58",
            "entry_id": "9c",
            "folio_page": "67D",
            "challenges": 1,
            "store_name": "colchester",
            "ledger_year": "1760/1761",
            "first_name": "charles",
            "last_name": "prestley",
            "transaction_type": "debit",
            "entry": "1,quart,,Brandy,L1s6;\r\nPer order ",
            "entry_type": "item",
            "comments": "Per order",
            "transaction_date": "01-24-1761"
        },
        {
            "reel_id": "58",
            "entry_id": "10",
            "folio_page": "67D",
            "store_name": "colchester",
            "ledger_year": "1760/1761",
            "first_name": "charles",
            "last_name": "prestley",
            "transaction_type": "debit",
            "original_entry": "1",
            "entry": "To 1 Drawing knife 3/:    February 20th To 3 quarts Brandy 3/:    1  yard ferret 6d",
            "entry_type": "other",
            "transaction_date": "02-10-1761",
            "currency_type": [
                "virginia"
            ],
            "currency_measure": [
                "currency"
            ],
            "currency_parts": [
                ",6,6"
            ]
        },
        {
            "reel_id": "58",
            "entry_id": "10a",
            "folio_page": "67D",
            "store_name": "colchester",
            "ledger_year": "1760/1761",
            "first_name": "charles",
            "last_name": "prestley",
            "transaction_type": "debit",
            "entry": "1,,Drawing,knife,L3s   ",
            "entry_type": "item",
            "transaction_date": "02-10-1761"
        },
        {
            "reel_id": "58",
            "entry_id": "10b",
            "folio_page": "67D",
            "store_name": "colchester",
            "ledger_year": "1760/1761",
            "first_name": "charles",
            "last_name": "prestley",
            "transaction_type": "debit",
            "entry": "3,quarts,,Brandy,L3s;   \r\n1,yard,,ferret,Ls6",
            "entry_type": "item",
            "transaction_date": "02-20-1761"
        },
        {
            "reel_id": "58",
            "entry_id": "11",
            "folio_page": "67D",
            "challenges": 1,
            "store_name": "colchester",
            "ledger_year": "1760/1761",
            "first_name": "charles",
            "last_name": "prestley",
            "transaction_type": "debit",
            "entry": "14,yards,,Roll,L11s8;    \r\n4.25,yards,,osnaburg,L4s3;    \r\n1,quart,,Rum,L2s;\r\n1,,,Comb,Ls5;     \r\nCash, L1s3;\r\nfor Mrs Peirce",
            "entry_type": "item",
            "folio_reference": "15",
            "comments": "Cash, person",
            "transaction_date": "03-02-1761",
            "currency_type": [
                "virginia"
            ],
            "currency_measure": [
                "currency"
            ],
            "currency_parts": [
                ",19,7"
            ]
        },
        {
            "reel_id": "58",
            "entry_id": "12",
            "folio_page": "67D",
            "store_name": "colchester",
            "ledger_year": "1760/1761",
            "first_name": "charles",
            "last_name": "prestley",
            "transaction_type": "debit",
            "original_entry": "1",
            "entry": "To 1 pound gun powder 3/:    March 20th To Cash 20/:    1 pint Brandy 9d ",
            "entry_type": "other",
            "folio_reference": "16",
            "transaction_date": "03-14-1761",
            "currency_type": [
                "virginia"
            ],
            "currency_measure": [
                "currency"
            ],
            "currency_parts": [
                "1,3,9"
            ]
        },
        {
            "reel_id": "58",
            "entry_id": "12a",
            "folio_page": "67D",
            "store_name": "colchester",
            "ledger_year": "1760/1761",
            "first_name": "charles",
            "last_name": "prestley",
            "transaction_type": "debit",
            "entry": "1,pound,gun,powder,L3s ",
            "entry_type": "item",
            "transaction_date": "03-14-1761"
        },
        {
            "reel_id": "58",
            "entry_id": "12b",
            "folio_page": "67D",
            "challenges": 1,
            "store_name": "colchester",
            "ledger_year": "1760/1761",
            "first_name": "charles",
            "last_name": "prestley",
            "transaction_type": "debit",
            "entry": "Cash, L20s;    \r\n1,pint,,Brandy,Ls9 ",
            "entry_type": "other",
            "folio_reference": "16",
            "comments": "Cash",
            "transaction_date": "03-20-1761"
        },
        {
            "reel_id": "58",
            "entry_id": "13",
            "folio_page": "67D",
            "store_name": "colchester",
            "ledger_year": "1760/1761",
            "first_name": "charles",
            "last_name": "prestley",
            "transaction_type": "debit",
            "original_entry": "1",
            "entry": "To 100 8d Nails 1/:    April 18th To Cash 1/:    1 Bushel Salt 3/:    1 pint Rum 1/:",
            "entry_type": "other",
            "transaction_date": "04-09-1761",
            "currency_type": [
                "virginia"
            ],
            "currency_measure": [
                "currency"
            ],
            "currency_parts": [
                ",6,"
            ]
        },
        {
            "reel_id": "58",
            "entry_id": "13a",
            "folio_page": "67D",
            "store_name": "colchester",
            "ledger_year": "1760/1761",
            "first_name": "charles",
            "last_name": "prestley",
            "transaction_type": "debit",
            "entry": "100,,8d,Nails,L1s    ",
            "entry_type": "item",
            "transaction_date": "04-09-1761"
        },
        {
            "reel_id": "58",
            "entry_id": "13b",
            "folio_page": "67D",
            "challenges": 1,
            "store_name": "colchester",
            "ledger_year": "1760/1761",
            "first_name": "charles",
            "last_name": "prestley",
            "transaction_type": "debit",
            "entry": "Cash, L1s;    \r\n1,Bushel,,Salt,L3s;    \r\n1,pint,,Rum,L1s",
            "entry_type": "other",
            "comments": "Cash",
            "transaction_date": "04-18-1761"
        },
        {
            "reel_id": "58",
            "entry_id": "14",
            "folio_page": "67D",
            "store_name": "colchester",
            "ledger_year": "1760/1761",
            "first_name": "charles",
            "last_name": "prestley",
            "transaction_type": "debit",
            "entry": "1,Pair,Double-Channeled,Pumps,L11s\r\n",
            "entry_type": "item",
            "transaction_date": "05-02-1761",
            "currency_type": [
                "virginia"
            ],
            "currency_measure": [
                "currency"
            ],
            "currency_parts": [
                ",11,"
            ]
        },
        {
            "reel_id": "58",
            "entry_id": "15",
            "folio_page": "67D",
            "challenges": 1,
            "store_name": "colchester",
            "ledger_year": "1760/1761",
            "first_name": "charles",
            "last_name": "prestley",
            "transaction_type": "debit",
            "entry": "John West Sheriff, 11 pounds Tobacco;\r\nand 4/:",
            "entry_type": "other",
            "folio_reference": "115",
            "comments": "Person, cash",
            "transaction_date": "05-16-1761",
            "currency_type": [
                "virginia"
            ],
            "currency_measure": [
                "currency"
            ],
            "currency_parts": [
                ",4,"
            ]
        },
        {
            "reel_id": "58",
            "entry_id": "16",
            "folio_page": "67D",
            "challenges": 1,
            "store_name": "colchester",
            "ledger_year": "1760/1761",
            "first_name": "charles",
            "last_name": "prestley",
            "transaction_type": "debit",
            "entry": "Robert Boggiss, Parish Collector, 20 pounds",
            "entry_type": "other",
            "folio_reference": "128",
            "comments": "Person, tobacco transactino",
            "transaction_date": "05-16-1761"
        },
        {
            "reel_id": "58",
            "entry_id": "16a",
            "folio_page": "67D",
            "challenges": 1,
            "store_name": "colchester",
            "ledger_year": "1760/1761",
            "first_name": "charles",
            "last_name": "prestley",
            "transaction_type": "debit",
            "entry": "Total tobacco",
            "entry_type": "other",
            "comments": "Tobacco transaction",
            "transaction_date": "05-16-1761",
            "currency_type": [
                "tobacco"
            ],
            "currency_measure": [
                ""
            ],
            "currency_parts": 31
        },
        {
            "reel_id": "58",
            "entry_id": "17",
            "folio_page": "67D",
            "store_name": "colchester",
            "ledger_year": "1760/1761",
            "first_name": "charles",
            "last_name": "prestley",
            "transaction_type": "debit",
            "entry": "2.5,yards,blue-Broad,Cloth,L18s6,L46s3;    4.5,yards,white,Shalloon,L13s6",
            "entry_type": "item",
            "transaction_date": "05-23-1761",
            "currency_type": [
                "virginia"
            ],
            "currency_measure": [
                "currency"
            ],
            "currency_parts": [
                "2,19,9"
            ]
        },
        {
            "reel_id": "58",
            "entry_id": "18",
            "folio_page": "67D",
            "store_name": "colchester",
            "ledger_year": "1760/1761",
            "first_name": "charles",
            "last_name": "prestley",
            "transaction_type": "debit",
            "entry": "2.5,Dozen,Large-best-plated,Buttons,L8s9; 2,Sticks,,Twist,L1s4;     \r\n1,ounce,,thread,Ls6",
            "entry_type": "item",
            "transaction_date": "05-23-1761",
            "currency_type": [
                "virginia"
            ],
            "currency_measure": [
                "currency"
            ],
            "currency_parts": [
                ",10,7"
            ]
        },
        {
            "reel_id": "58",
            "entry_id": "19",
            "folio_page": "67D",
            "store_name": "colchester",
            "ledger_year": "1760/1761",
            "first_name": "charles",
            "last_name": "prestley",
            "transaction_type": "debit",
            "entry": "1,hank,,Silk,L1s;     \r\n.75,yard,,Buckram,L1s6; \r\n1,hank,,Silk,L1s;\r\n1,Stick,,Twist,Ls7.5 ",
            "entry_type": "item",
            "transaction_date": "05-23-1761",
            "currency_type": [
                "virginia"
            ],
            "currency_measure": [
                "currency"
            ],
            "currency_parts": [
                ",4,1.5"
            ]
        },
        {
            "reel_id": "58",
            "entry_id": "20",
            "folio_page": "67D",
            "store_name": "colchester",
            "ledger_year": "1760/1761",
            "first_name": "charles",
            "last_name": "prestley",
            "transaction_type": "debit",
            "entry": "2.5,yards,Scarlet-worsted,Shag,L22s6;\r\n1,Dozen,,Buttons,L1s ",
            "entry_type": "item",
            "transaction_date": "05-23-1761",
            "currency_type": [
                "virginia"
            ],
            "currency_measure": [
                "currency"
            ],
            "currency_parts": [
                "1,3,6"
            ]
        },
        {
            "reel_id": "58",
            "entry_id": "21",
            "folio_page": "67D",
            "store_name": "colchester",
            "ledger_year": "1760/1761",
            "first_name": "charles",
            "last_name": "prestley",
            "transaction_type": "debit",
            "entry": "3.25,yards,Russia,Linen,L3s3;   \r\n.5,yard,,osnaburg,Ls6;\r\n1,Pair,Silk,Garters,L3s",
            "entry_type": "item",
            "transaction_date": "05-23-1761",
            "currency_type": [
                "virginia"
            ],
            "currency_measure": [
                "currency"
            ],
            "currency_parts": [
                ",6,9"
            ]
        },
        {
            "reel_id": "58",
            "entry_id": "22",
            "folio_page": "67D",
            "challenges": 1,
            "store_name": "colchester",
            "ledger_year": "1760/1761",
            "first_name": "charles",
            "last_name": "prestley",
            "transaction_type": "debit",
            "entry": "Cash ",
            "entry_type": "cash",
            "folio_reference": "17",
            "comments": "Cash",
            "transaction_date": "05-25-1761",
            "currency_type": [
                "virginia"
            ],
            "currency_measure": [
                "currency"
            ]
        },
        {
            "reel_id": "58",
            "entry_id": "23",
            "folio_page": "67D",
            "store_name": "colchester",
            "ledger_year": "1760/1761",
            "first_name": "charles",
            "last_name": "prestley",
            "transaction_type": "debit",
            "original_entry": "1",
            "entry": "To 1 quart Rum Per order 1/9    June 25th To Cash 15/:    1 Penknife 1/3",
            "entry_type": "other",
            "folio_reference": "17",
            "transaction_date": "06-15-1761",
            "currency_type": [
                "virginia"
            ],
            "currency_measure": [
                "currency"
            ],
            "currency_parts": [
                ",18,"
            ]
        },
        {
            "reel_id": "58",
            "entry_id": "23a",
            "folio_page": "67D",
            "challenges": 1,
            "store_name": "colchester",
            "ledger_year": "1760/1761",
            "first_name": "charles",
            "last_name": "prestley",
            "transaction_type": "debit",
            "entry": "1 quart,,Rum,L1s9;\r\nPer order   ",
            "entry_type": "item",
            "comments": "Per order",
            "transaction_date": "06-15-1761"
        },
        {
            "reel_id": "58",
            "entry_id": "23b",
            "folio_page": "67D",
            "challenges": 1,
            "store_name": "colchester",
            "ledger_year": "1760/1761",
            "first_name": "charles",
            "last_name": "prestley",
            "transaction_type": "debit",
            "entry": "Cash, L15s;\r\n1,,,Penknife,L1s3",
            "entry_type": "other",
            "folio_reference": "17",
            "comments": "Cash",
            "transaction_date": "06-25-1761"
        },
        {
            "reel_id": "58",
            "entry_id": "24",
            "folio_page": "67D",
            "store_name": "colchester",
            "ledger_year": "1760/1761",
            "first_name": "charles",
            "last_name": "prestley",
            "transaction_type": "debit",
            "original_entry": "1",
            "entry": "To 1 yard Ribbon 1/:    July 11th To 1 quart Rum 1/6    1 Broad Hoe 4/:",
            "entry_type": "other",
            "transaction_date": "06-30-1761",
            "currency_type": [
                "virginia"
            ],
            "currency_measure": [
                "currency"
            ],
            "currency_parts": [
                ",6,6"
            ]
        },
        {
            "reel_id": "58",
            "entry_id": "24a",
            "folio_page": "67D",
            "store_name": "colchester",
            "ledger_year": "1760/1761",
            "first_name": "charles",
            "last_name": "prestley",
            "transaction_type": "debit",
            "entry": "1,yard,,Ribbon,L1s    ",
            "entry_type": "item",
            "transaction_date": "06-30-1761"
        },
        {
            "reel_id": "58",
            "entry_id": "24b",
            "folio_page": "67D",
            "store_name": "colchester",
            "ledger_year": "1760/1761",
            "first_name": "charles",
            "last_name": "prestley",
            "transaction_type": "debit",
            "entry": "1,quart,,Rum,L1s6;    \r\n1,,Broad,Hoe,L4s",
            "entry_type": "item",
            "transaction_date": "07-11-1761"
        },
        {
            "reel_id": "58",
            "entry_id": "25",
            "folio_page": "67D",
            "store_name": "colchester",
            "ledger_year": "1760/1761",
            "first_name": "charles",
            "last_name": "prestley",
            "transaction_type": "debit",
            "original_entry": "1",
            "entry": "To 1 ounce thread Per John McIntosh 6d    August 6th To 1 quart Rum 1/6",
            "entry_type": "other",
            "transaction_date": "07-21-1761",
            "currency_type": [
                "virginia"
            ],
            "currency_measure": [
                "currency"
            ],
            "currency_parts": [
                ",2,"
            ]
        },
        {
            "reel_id": "58",
            "entry_id": "25a",
            "folio_page": "67D",
            "challenges": 1,
            "store_name": "colchester",
            "ledger_year": "1760/1761",
            "first_name": "charles",
            "last_name": "prestley",
            "transaction_type": "debit",
            "entry": "1,ounce,,thread,Ls6;\r\nPer John McIntosh    ",
            "entry_type": "item",
            "comments": "Person",
            "transaction_date": "07-21-1761"
        },
        {
            "reel_id": "58",
            "entry_id": "25b",
            "folio_page": "67D",
            "store_name": "colchester",
            "ledger_year": "1760/1761",
            "first_name": "charles",
            "last_name": "prestley",
            "transaction_type": "debit",
            "entry": "1,quart,,Rum,L1s6",
            "entry_type": "item",
            "transaction_date": "08-06-1761"
        },
        {
            "reel_id": "58",
            "entry_id": "26",
            "folio_page": "67D",
            "challenges": 1,
            "store_name": "colchester",
            "ledger_year": "1760/1761",
            "first_name": "charles",
            "last_name": "prestley",
            "transaction_type": "debit",
            "entry": "James Brown, your order to him for ",
            "entry_type": "other",
            "folio_reference": "140",
            "comments": "Person",
            "transaction_date": "08-07-1761",
            "currency_type": [
                "virginia"
            ],
            "currency_measure": [
                "currency"
            ],
            "currency_parts": [
                ",4,3.75"
            ]
        },
        {
            "reel_id": "58",
            "entry_id": "27",
            "folio_page": "67D",
            "store_name": "colchester",
            "ledger_year": "1760/1761",
            "first_name": "charles",
            "last_name": "prestley",
            "transaction_type": "debit",
            "original_entry": "1",
            "entry": "To 1 Gallon Rum Per order 6/:    August 29th To Cash 10/:",
            "entry_type": "other",
            "folio_reference": "143",
            "transaction_date": "08-24-1761",
            "currency_type": [
                "virginia"
            ],
            "currency_measure": [
                "currency"
            ],
            "currency_parts": [
                ",16,"
            ]
        },
        {
            "reel_id": "58",
            "entry_id": "27a",
            "folio_page": "67D",
            "challenges": 1,
            "store_name": "colchester",
            "ledger_year": "1760/1761",
            "first_name": "charles",
            "last_name": "prestley",
            "transaction_type": "debit",
            "entry": "1,Gallon,,Rum,L6s;\r\nPer order    ",
            "entry_type": "item",
            "comments": "Per order",
            "transaction_date": "08-24-1761"
        },
        {
            "reel_id": "58",
            "entry_id": "27b",
            "folio_page": "67D",
            "challenges": 1,
            "store_name": "colchester",
            "ledger_year": "1760/1761",
            "first_name": "charles",
            "last_name": "prestley",
            "transaction_type": "debit",
            "entry": "Cash, L10s",
            "entry_type": "cash",
            "folio_reference": "143",
            "comments": "Cash",
            "transaction_date": "08-29-1761"
        },
        {
            "reel_id": "58",
            "entry_id": "28",
            "folio_page": "67D",
            "store_name": "colchester",
            "ledger_year": "1760/1761",
            "first_name": "charles",
            "last_name": "prestley",
            "transaction_type": "debit",
            "original_entry": "1",
            "entry": "To Cash 2/6      October 10th To 3  yards osnaburg 3/:    1  Piece Tape 1/: your order to Stephen Fewell",
            "entry_type": "other",
            "folio_reference": "144",
            "transaction_date": "10-03-1761",
            "currency_type": [
                "virginia"
            ],
            "currency_measure": [
                "currency"
            ],
            "currency_parts": [
                ",6,6"
            ]
        },
        {
            "reel_id": "58",
            "entry_id": "28a",
            "folio_page": "67D",
            "challenges": 1,
            "store_name": "colchester",
            "ledger_year": "1760/1761",
            "first_name": "charles",
            "last_name": "prestley",
            "transaction_type": "debit",
            "entry": "Cash, L2s6   ",
            "entry_type": "cash",
            "folio_reference": "144",
            "comments": "Cash",
            "transaction_date": "10-03-1761"
        },
        {
            "reel_id": "58",
            "entry_id": "28b",
            "folio_page": "67D",
            "challenges": 1,
            "store_name": "colchester",
            "ledger_year": "1760/1761",
            "first_name": "charles",
            "last_name": "prestley",
            "transaction_type": "debit",
            "entry": "3,yards,,osnaburg,L3s;    \r\n1,Piece,,Tape,L1s;\r\nyour order to Stephen Fewell",
            "entry_type": "item",
            "comments": "Person",
            "transaction_date": "10-10-1761"
        },
        {
            "reel_id": "58",
            "entry_id": "29",
            "folio_page": "67D",
            "store_name": "colchester",
            "ledger_year": "1760/1761",
            "first_name": "charles",
            "last_name": "prestley",
            "transaction_type": "debit",
            "original_entry": "1",
            "entry": "To 1 quart Rum 1/3    October 17th To 1 penknife 1/3    1 handkerchief 1/3    .5 Bushel Salt 1/3 ",
            "entry_type": "other",
            "transaction_date": "10-13-1761",
            "currency_type": [
                "virginia"
            ],
            "currency_measure": [
                "currency"
            ],
            "currency_parts": [
                ",5,"
            ]
        },
        {
            "reel_id": "58",
            "entry_id": "29a",
            "folio_page": "67D",
            "store_name": "colchester",
            "ledger_year": "1760/1761",
            "first_name": "charles",
            "last_name": "prestley",
            "transaction_type": "debit",
            "entry": "1,quart,,Rum,L1s3   ",
            "entry_type": "item",
            "transaction_date": "10-13-1761"
        },
        {
            "reel_id": "58",
            "entry_id": "29b",
            "folio_page": "67D",
            "store_name": "colchester",
            "ledger_year": "1760/1761",
            "first_name": "charles",
            "last_name": "prestley",
            "transaction_type": "debit",
            "entry": "1,,,penknife,L1s3;    \r\n1,,,handkerchief,L1s3;\r\n.5,Bushel,,Salt,L1s3",
            "entry_type": "item",
            "transaction_date": "10-17-1761"
        },
        {
            "reel_id": "58",
            "entry_id": "30",
            "folio_page": "67D",
            "store_name": "colchester",
            "ledger_year": "1760/1761",
            "first_name": "charles",
            "last_name": "prestley",
            "transaction_type": "debit",
            "original_entry": "1",
            "entry": "To 1 quart Rum 1/3    1 Pair Shoe buckles 1/3    November 11th  1 fine felt hat 6/8",
            "entry_type": "other",
            "transaction_date": "11-02-1761",
            "currency_type": [
                "virginia"
            ],
            "currency_measure": [
                "currency"
            ],
            "currency_parts": [
                ",9,2"
            ]
        },
        {
            "reel_id": "58",
            "entry_id": "30a",
            "folio_page": "67D",
            "store_name": "colchester",
            "ledger_year": "1760/1761",
            "first_name": "charles",
            "last_name": "prestley",
            "transaction_type": "debit",
            "entry": "1,quart,,Rum,L1s3;    \r\n1,Pair,Shoe,buckles,L1s3    ",
            "entry_type": "item",
            "transaction_date": "11-02-1761"
        },
        {
            "reel_id": "58",
            "entry_id": "30b",
            "folio_page": "67D",
            "store_name": "colchester",
            "ledger_year": "1760/1761",
            "first_name": "charles",
            "last_name": "prestley",
            "transaction_type": "debit",
            "entry": "1,fine,felt,hat,L6s8",
            "entry_type": "item",
            "transaction_date": "11-11-1761"
        },
        {
            "reel_id": "58",
            "entry_id": "31",
            "folio_page": "67D",
            "store_name": "colchester",
            "ledger_year": "1760/1761",
            "first_name": "charles",
            "last_name": "prestley",
            "transaction_type": "debit",
            "original_entry": "1",
            "entry": "To 1 quart Rum 1/3    1  yard Striped Linsey 3/:    December 9th To .5 Bushel Salt 1/3    2 quarts Rum 2/6",
            "entry_type": "other",
            "transaction_date": "11-23-1761",
            "currency_type": [
                "virginia"
            ],
            "currency_measure": [
                "currency"
            ],
            "currency_parts": [
                ",8,"
            ]
        },
        {
            "reel_id": "58",
            "entry_id": "31a",
            "folio_page": "67D",
            "store_name": "colchester",
            "ledger_year": "1760/1761",
            "first_name": "charles",
            "last_name": "prestley",
            "transaction_type": "debit",
            "entry": "1,quart,,Rum,L1s3;\r\n1,yard,Striped,Linsey,L3s    ",
            "entry_type": "item",
            "transaction_date": "11-23-1761"
        },
        {
            "reel_id": "58",
            "entry_id": "31b",
            "folio_page": "67D",
            "store_name": "colchester",
            "ledger_year": "1760/1761",
            "first_name": "charles",
            "last_name": "prestley",
            "transaction_type": "debit",
            "entry": ".5,Bushel,,Salt,L1s3;\r\n2,quarts,,Rum,L2s6",
            "entry_type": "item",
            "transaction_date": "12-09-1761"
        },
        {
            "reel_id": "58",
            "entry_id": "32",
            "folio_page": "67D",
            "store_name": "colchester",
            "ledger_year": "1760/1761",
            "first_name": "charles",
            "last_name": "prestley",
            "transaction_type": "debit",
            "entry": "2,yards,,Shalloon,L5s;\r\n2.25,yards,,Duffill,L18s;\r\n1.5,Dozen,,Buttons,L3s;\r\n1,Stick,,mohair,Ls6;\r\n1,ounce,,thread,Ls6",
            "entry_type": "item",
            "transaction_date": "12-09-1761",
            "currency_type": [
                "virginia"
            ],
            "currency_measure": [
                "currency"
            ],
            "currency_parts": [
                ",7,"
            ]
        },
        {
            "reel_id": "58",
            "entry_id": "33",
            "folio_page": "67D",
            "store_name": "colchester",
            "ledger_year": "1760/1761",
            "first_name": "charles",
            "last_name": "prestley",
            "transaction_type": "debit",
            "original_entry": "1",
            "entry": "To .5 pound gun powder 1/3    ½ Gallon Rum 3/:    December 23d To .5 Gallon Rum 3/:",
            "entry_type": "other",
            "transaction_date": "12-21 -1761",
            "currency_type": [
                "virginia"
            ],
            "currency_measure": [
                "currency"
            ],
            "currency_parts": [
                ",7,3"
            ]
        },
        {
            "reel_id": "58",
            "entry_id": "33a",
            "folio_page": "67D",
            "store_name": "colchester",
            "ledger_year": "1760/1761",
            "first_name": "charles",
            "last_name": "prestley",
            "transaction_type": "debit",
            "entry": ".5,pound,gun,powder,L1s3; \r\n.5,Gallon,,Rum,L3s    ",
            "entry_type": "item",
            "transaction_date": "12-21-1761"
        },
        {
            "reel_id": "58",
            "entry_id": "33b",
            "folio_page": "67D",
            "store_name": "colchester",
            "ledger_year": "1760/1761",
            "first_name": "charles",
            "last_name": "prestley",
            "transaction_type": "debit",
            "entry": ".5,Gallon,,Rum,L3s ",
            "entry_type": "item",
            "transaction_date": "12-23-1761"
        },
        {
            "reel_id": "58",
            "entry_id": "34",
            "folio_page": "67D",
            "challenges": 1,
            "store_name": "colchester",
            "ledger_year": "1760/1761",
            "first_name": "charles",
            "last_name": "prestley",
            "transaction_type": "debit",
            "entry": "Total ",
            "entry_type": "other",
            "comments": "Account total",
            "currency_type": [
                "tobacco",
                "virginia"
            ],
            "currency_measure": [
                "",
                "currency"
            ],
            "currency_parts": [
                "31",
                "15,18,1.25"
            ]
        },
        {
            "reel_id": "58",
            "entry_id": "1",
            "folio_page": "67C",
            "challenges": 1,
            "store_name": "colchester",
            "ledger_year": "1760/1761",
            "marginalia": "Colchester\r\n1760-1761, Top Center ",
            "comments": "Marginalia"
        },
        {
            "reel_id": "58",
            "entry_id": "2",
            "folio_page": "67C",
            "challenges": 1,
            "store_name": "colchester",
            "ledger_year": "1760/1761",
            "first_name": "moses",
            "last_name": "hall",
            "transaction_type": "credit",
            "entry": "Balance to Liber C",
            "entry_type": "other",
            "comments": "Account Balance to",
            "year": "1761",
            "currency_type": [
                "virginia"
            ],
            "currency_measure": [
                "currency"
            ],
            "currency_parts": [
                ",14,3"
            ]
        },
        {
            "reel_id": "58",
            "entry_id": "3",
            "folio_page": "67C",
            "challenges": 1,
            "store_name": "colchester",
            "ledger_year": "1760/1761",
            "first_name": "moses",
            "last_name": "hall",
            "transaction_type": "credit",
            "entry": "Total",
            "entry_type": "other",
            "comments": "Account total",
            "year": "1761",
            "currency_type": [
                "virginia"
            ],
            "currency_measure": [
                "currency"
            ],
            "currency_parts": [
                ",14,3"
            ]
        },
        {
            "reel_id": "58",
            "entry_id": "4",
            "folio_page": "67C",
            "challenges": 1,
            "store_name": "colchester",
            "ledger_year": "1760/1761",
            "first_name": "charles",
            "last_name": "prestley",
            "transaction_type": "credit",
            "entry": "William Prestley 1015 pounds tobacco\r\n                            31  off\r\n                          984 pounds tobacco at L20s",
            "entry_type": "other",
            "comments": "Person, tobacco transactino",
            "year": "1761",
            "currency_type": [
                "tobacco",
                "virginia"
            ],
            "currency_measure": [
                "",
                "currency"
            ],
            "currency_parts": [
                "31",
                "9,16,9"
            ]
        },
        {
            "reel_id": "58",
            "entry_id": "5",
            "folio_page": "67C",
            "challenges": 1,
            "store_name": "colchester",
            "ledger_year": "1760/1761",
            "first_name": "charles",
            "last_name": "prestley",
            "transaction_type": "credit",
            "entry": "Balance carried to Liber C",
            "entry_type": "other",
            "comments": "Account Balance to",
            "transaction_date": "12-31-1761",
            "currency_type": [
                "virginia"
            ],
            "currency_measure": [
                "currency"
            ],
            "currency_parts": [
                "6,1,4.25"
            ]
        },
        {
            "reel_id": "58",
            "entry_id": "6",
            "folio_page": "67C",
            "challenges": 1,
            "store_name": "colchester",
            "ledger_year": "1760/1761",
            "first_name": "charles",
            "last_name": "prestley",
            "transaction_type": "credit",
            "entry": "Total",
            "entry_type": "other",
            "comments": "Account total",
            "year": "1761",
            "currency_type": [
                "tobacco",
                "virginia"
            ],
            "currency_measure": [
                "",
                "currency"
            ],
            "currency_parts": [
                "31",
                "15,18,1.25"
            ]
        }
    ],
    "entries": [
        {
            "reel_id": "58",
            "folio_page": "67D",
            "entry_id": "1",
            "challenges": 1,
            "comments": "Marginalia"
        },
        {
            "reel_id": "58",
            "folio_page": "67D",
            "entry_id": "2",
            "amount": 0.5,
            "unit_measure": "bushel",
            "descriptor": "salt",
            "name": "l1s3"
        },
        {
            "reel_id": "58",
            "folio_page": "67D",
            "entry_id": "2",
            "amount": 1,
            "unit_measure": "pair",
            "descriptor": "mens",
            "name": "shoes",
            "item_price": ",7,6"
        },
        {
            "reel_id": "58",
            "folio_page": "67D",
            "entry_id": "2",
            "amount": 0.5,
            "unit_measure": "pound",
            "descriptor": "gun powder",
            "name": "l1s6 "
        },
        {
            "reel_id": "58",
            "folio_page": "67D",
            "entry_id": "3",
            "amount": 1,
            "unit_measure": "quart",
            "name": "rum",
            "item_price": ",1,6"
        },
        {
            "reel_id": "58",
            "folio_page": "67D",
            "entry_id": "3",
            "amount": 1,
            "unit_measure": "yard",
            "name": "osnaburg",
            "item_price": ",1,"
        },
        {
            "reel_id": "58",
            "folio_page": "67D",
            "entry_id": "3",
            "amount": 2,
            "unit_measure": "pounds",
            "name": "sugar",
            "item_price": ",1,6 "
        },
        {
            "reel_id": "58",
            "folio_page": "67D",
            "entry_id": "4",
            "challenges": 1,
            "entry": "Total ",
            "comments": "Account total"
        },
        {
            "reel_id": "58",
            "folio_page": "67D",
            "entry_id": "5",
            "challenges": 1,
            "entry": "1,,Curry,Comb and brush,L3s6; Per brother    \r\n1,Gallon,,Rum,L6s;Per Self",
            "comments": "Multiple items in one description (Comb,brush)\r\nPerson"
        },
        {
            "reel_id": "58",
            "folio_page": "67D",
            "entry_id": "6",
            "original_entry": 1,
            "entry": "To .5 pound Shoe Thread Per Brother 1/6    December 9th  50 6d Nails 4d     150 8d Nails 1/3"
        },
        {
            "reel_id": "58",
            "folio_page": "67D",
            "entry_id": "6a",
            "challenges": 1,
            "entry": ".5,pound,Shoe,Thread,L1s6; \r\nPer Brother    ",
            "comments": "Person"
        },
        {
            "reel_id": "58",
            "folio_page": "67D",
            "entry_id": "6b",
            "amount": 50,
            "descriptor": "6d",
            "name": "nails",
            "item_price": ",,4"
        },
        {
            "reel_id": "58",
            "folio_page": "67D",
            "entry_id": "6b",
            "amount": 150,
            "descriptor": "8d",
            "name": "nails",
            "item_price": ",1,3"
        },
        {
            "reel_id": "58",
            "folio_page": "67D",
            "entry_id": "7",
            "original_entry": 1,
            "entry": "To 1 hank silk 1/:    December 20th  1 Bed Cord 2/6    December 24th  .5 Gallon Rum Per brother 3/3"
        },
        {
            "reel_id": "58",
            "folio_page": "67D",
            "entry_id": "7a",
            "amount": 1,
            "unit_measure": "hank",
            "name": "silk",
            "item_price": ",1,"
        },
        {
            "reel_id": "58",
            "folio_page": "67D",
            "entry_id": "7b",
            "amount": 1,
            "name": "bedcord",
            "item_price": ",2,6   "
        },
        {
            "reel_id": "58",
            "folio_page": "67D",
            "entry_id": "7c",
            "challenges": 1,
            "entry": ".5,Gallon,,Rum,L3s3;\r\nPer brother ",
            "comments": "Person"
        },
        {
            "reel_id": "58",
            "folio_page": "67D",
            "entry_id": "8",
            "original_entry": 1,
            "entry": "To 1 Bushel Salt 3/: Per order    January 17th 1 quart Brandy  Per brother 1/6"
        },
        {
            "reel_id": "58",
            "folio_page": "67D",
            "entry_id": "8a",
            "challenges": 1,
            "entry": "1,Bushel,,Salt,L3s;\r\nPer order    ",
            "comments": "Per order"
        },
        {
            "reel_id": "58",
            "folio_page": "67D",
            "entry_id": "8b",
            "challenges": 1,
            "entry": "1,quart,,Brandy,L1s6;\r\nPer brother",
            "comments": "Person"
        },
        {
            "reel_id": "58",
            "folio_page": "67D",
            "entry_id": "9",
            "original_entry": 1,
            "entry": "To 1 quart Brandy 1/6    January 20th To 1  hank silk 1/:    January 24th To 1 quart Brandy Per order 1/6"
        },
        {
            "reel_id": "58",
            "folio_page": "67D",
            "entry_id": "9a",
            "amount": 1,
            "unit_measure": "quart",
            "name": "brandy",
            "item_price": ",1,6   "
        },
        {
            "reel_id": "58",
            "folio_page": "67D",
            "entry_id": "9b",
            "amount": 1,
            "unit_measure": "hank",
            "name": "silk",
            "item_price": ",1,    "
        },
        {
            "reel_id": "58",
            "folio_page": "67D",
            "entry_id": "9c",
            "challenges": 1,
            "entry": "1,quart,,Brandy,L1s6;\r\nPer order ",
            "comments": "Per order"
        },
        {
            "reel_id": "58",
            "folio_page": "67D",
            "entry_id": "10",
            "original_entry": 1,
            "entry": "To 1 Drawing knife 3/:    February 20th To 3 quarts Brandy 3/:    1  yard ferret 6d"
        },
        {
            "reel_id": "58",
            "folio_page": "67D",
            "entry_id": "10a",
            "amount": 1,
            "descriptor": "drawing",
            "name": "knife",
            "item_price": ",3,   "
        },
        {
            "reel_id": "58",
            "folio_page": "67D",
            "entry_id": "10b",
            "amount": 3,
            "unit_measure": "quarts",
            "name": "brandy",
            "item_price": ",3,"
        },
        {
            "reel_id": "58",
            "folio_page": "67D",
            "entry_id": "10b",
            "amount": 1,
            "unit_measure": "yard",
            "name": "ferret",
            "item_price": ",,6"
        },
        {
            "reel_id": "58",
            "folio_page": "67D",
            "entry_id": "11",
            "challenges": 1,
            "entry": "14,yards,,Roll,L11s8;    \r\n4.25,yards,,osnaburg,L4s3;    \r\n1,quart,,Rum,L2s;\r\n1,,,Comb,Ls5;     \r\nCash, L1s3;\r\nfor Mrs Peirce",
            "comments": "Cash, person"
        },
        {
            "reel_id": "58",
            "folio_page": "67D",
            "entry_id": "12",
            "original_entry": 1,
            "entry": "To 1 pound gun powder 3/:    March 20th To Cash 20/:    1 pint Brandy 9d "
        },
        {
            "reel_id": "58",
            "folio_page": "67D",
            "entry_id": "12a",
            "amount": 1,
            "unit_measure": "pound",
            "descriptor": "gun",
            "name": "powder",
            "item_price": ",3, "
        },
        {
            "reel_id": "58",
            "folio_page": "67D",
            "entry_id": "12b",
            "challenges": 1,
            "entry": "Cash, L20s;    \r\n1,pint,,Brandy,Ls9 ",
            "comments": "Cash"
        },
        {
            "reel_id": "58",
            "folio_page": "67D",
            "entry_id": "13",
            "original_entry": 1,
            "entry": "To 100 8d Nails 1/:    April 18th To Cash 1/:    1 Bushel Salt 3/:    1 pint Rum 1/:"
        },
        {
            "reel_id": "58",
            "folio_page": "67D",
            "entry_id": "13a",
            "amount": 100,
            "descriptor": "8d",
            "name": "nails",
            "item_price": ",1,    "
        },
        {
            "reel_id": "58",
            "folio_page": "67D",
            "entry_id": "13b",
            "challenges": 1,
            "entry": "Cash, L1s;    \r\n1,Bushel,,Salt,L3s;    \r\n1,pint,,Rum,L1s",
            "comments": "Cash"
        },
        {
            "reel_id": "58",
            "folio_page": "67D",
            "entry_id": "14",
            "amount": 1,
            "unit_measure": "pair",
            "descriptor": "double,channeled",
            "name": "pumps",
            "item_price": ",11,"
        },
        {
            "reel_id": "58",
            "folio_page": "67D",
            "entry_id": "15",
            "challenges": 1,
            "entry": "John West Sheriff, 11 pounds Tobacco;\r\nand 4/:",
            "comments": "Person, cash"
        },
        {
            "reel_id": "58",
            "folio_page": "67D",
            "entry_id": "16",
            "challenges": 1,
            "entry": "Robert Boggiss, Parish Collector, 20 pounds",
            "comments": "Person, tobacco transactino"
        },
        {
            "reel_id": "58",
            "folio_page": "67D",
            "entry_id": "16a",
            "challenges": 1,
            "entry": "Total tobacco",
            "comments": "Tobacco transaction"
        },
        {
            "reel_id": "58",
            "folio_page": "67D",
            "entry_id": "17",
            "amount": 2.5,
            "unit_measure": "yards",
            "descriptor": "blue,broad",
            "name": "cloth",
            "unit_price": ",18,6",
            "item_price": ",46,3"
        },
        {
            "reel_id": "58",
            "folio_page": "67D",
            "entry_id": "17",
            "amount": 4.5,
            "unit_measure": "yards",
            "descriptor": "white",
            "name": "shalloon",
            "item_price": ",13,6"
        },
        {
            "reel_id": "58",
            "folio_page": "67D",
            "entry_id": "18",
            "amount": 2.5,
            "unit_measure": "dozen",
            "descriptor": "large,best-plated",
            "name": "buttons",
            "item_price": ",8,9"
        },
        {
            "reel_id": "58",
            "folio_page": "67D",
            "entry_id": "18",
            "amount": 2,
            "unit_measure": "sticks",
            "name": "twist",
            "item_price": ",1,4"
        },
        {
            "reel_id": "58",
            "folio_page": "67D",
            "entry_id": "18",
            "amount": 1,
            "unit_measure": "ounce",
            "name": "thread",
            "item_price": ",,6"
        },
        {
            "reel_id": "58",
            "folio_page": "67D",
            "entry_id": "19",
            "amount": 1,
            "unit_measure": "hank",
            "name": "silk",
            "item_price": ",1,"
        },
        {
            "reel_id": "58",
            "folio_page": "67D",
            "entry_id": "19",
            "amount": 0.75,
            "unit_measure": "yard",
            "name": "buckram",
            "item_price": ",1,6"
        },
        {
            "reel_id": "58",
            "folio_page": "67D",
            "entry_id": "19",
            "amount": 1,
            "unit_measure": "hank",
            "name": "silk",
            "item_price": ",1,"
        },
        {
            "reel_id": "58",
            "folio_page": "67D",
            "entry_id": "19",
            "amount": 1,
            "unit_measure": "stick",
            "name": "twist",
            "item_price": ",,7.5 "
        },
        {
            "reel_id": "58",
            "folio_page": "67D",
            "entry_id": "20",
            "amount": 2.5,
            "unit_measure": "yards",
            "descriptor": "scarlet,worsted",
            "name": "shag",
            "item_price": ",22,6"
        },
        {
            "reel_id": "58",
            "folio_page": "67D",
            "entry_id": "20",
            "amount": 1,
            "unit_measure": "dozen",
            "name": "buttons",
            "item_price": ",1, "
        },
        {
            "reel_id": "58",
            "folio_page": "67D",
            "entry_id": "21",
            "amount": 3.25,
            "unit_measure": "yards",
            "descriptor": "russia",
            "name": "linen",
            "item_price": ",3,3"
        },
        {
            "reel_id": "58",
            "folio_page": "67D",
            "entry_id": "21",
            "amount": 0.5,
            "unit_measure": "yard",
            "name": "osnaburg",
            "item_price": ",,6"
        },
        {
            "reel_id": "58",
            "folio_page": "67D",
            "entry_id": "21",
            "amount": 1,
            "unit_measure": "pair",
            "descriptor": "silk",
            "name": "garters",
            "item_price": ",3,"
        },
        {
            "reel_id": "58",
            "folio_page": "67D",
            "entry_id": "22",
            "challenges": 1,
            "entry": "Cash ",
            "comments": "Cash"
        },
        {
            "reel_id": "58",
            "folio_page": "67D",
            "entry_id": "23",
            "original_entry": 1,
            "entry": "To 1 quart Rum Per order 1/9    June 25th To Cash 15/:    1 Penknife 1/3"
        },
        {
            "reel_id": "58",
            "folio_page": "67D",
            "entry_id": "23a",
            "challenges": 1,
            "entry": "1 quart,,Rum,L1s9;\r\nPer order   ",
            "comments": "Per order"
        },
        {
            "reel_id": "58",
            "folio_page": "67D",
            "entry_id": "23b",
            "challenges": 1,
            "entry": "Cash, L15s;\r\n1,,,Penknife,L1s3",
            "comments": "Cash"
        },
        {
            "reel_id": "58",
            "folio_page": "67D",
            "entry_id": "24",
            "original_entry": 1,
            "entry": "To 1 yard Ribbon 1/:    July 11th To 1 quart Rum 1/6    1 Broad Hoe 4/:"
        },
        {
            "reel_id": "58",
            "folio_page": "67D",
            "entry_id": "24a",
            "amount": 1,
            "unit_measure": "yard",
            "name": "ribbon",
            "item_price": ",1,    "
        },
        {
            "reel_id": "58",
            "folio_page": "67D",
            "entry_id": "24b",
            "amount": 1,
            "unit_measure": "quart",
            "name": "rum",
            "item_price": ",1,6"
        },
        {
            "reel_id": "58",
            "folio_page": "67D",
            "entry_id": "24b",
            "amount": 1,
            "descriptor": "broad",
            "name": "hoe",
            "item_price": ",4,"
        },
        {
            "reel_id": "58",
            "folio_page": "67D",
            "entry_id": "25",
            "original_entry": 1,
            "entry": "To 1 ounce thread Per John McIntosh 6d    August 6th To 1 quart Rum 1/6"
        },
        {
            "reel_id": "58",
            "folio_page": "67D",
            "entry_id": "25a",
            "challenges": 1,
            "entry": "1,ounce,,thread,Ls6;\r\nPer John McIntosh    ",
            "comments": "Person"
        },
        {
            "reel_id": "58",
            "folio_page": "67D",
            "entry_id": "25b",
            "amount": 1,
            "unit_measure": "quart",
            "name": "rum",
            "item_price": ",1,6"
        },
        {
            "reel_id": "58",
            "folio_page": "67D",
            "entry_id": "26",
            "challenges": 1,
            "entry": "James Brown, your order to him for ",
            "comments": "Person"
        },
        {
            "reel_id": "58",
            "folio_page": "67D",
            "entry_id": "27",
            "original_entry": 1,
            "entry": "To 1 Gallon Rum Per order 6/:    August 29th To Cash 10/:"
        },
        {
            "reel_id": "58",
            "folio_page": "67D",
            "entry_id": "27a",
            "challenges": 1,
            "entry": "1,Gallon,,Rum,L6s;\r\nPer order    ",
            "comments": "Per order"
        },
        {
            "reel_id": "58",
            "folio_page": "67D",
            "entry_id": "27b",
            "challenges": 1,
            "entry": "Cash, L10s",
            "comments": "Cash"
        },
        {
            "reel_id": "58",
            "folio_page": "67D",
            "entry_id": "28",
            "original_entry": 1,
            "entry": "To Cash 2/6      October 10th To 3  yards osnaburg 3/:    1  Piece Tape 1/: your order to Stephen Fewell"
        },
        {
            "reel_id": "58",
            "folio_page": "67D",
            "entry_id": "28a",
            "challenges": 1,
            "entry": "Cash, L2s6   ",
            "comments": "Cash"
        },
        {
            "reel_id": "58",
            "folio_page": "67D",
            "entry_id": "28b",
            "challenges": 1,
            "entry": "3,yards,,osnaburg,L3s;    \r\n1,Piece,,Tape,L1s;\r\nyour order to Stephen Fewell",
            "comments": "Person"
        },
        {
            "reel_id": "58",
            "folio_page": "67D",
            "entry_id": "29",
            "original_entry": 1,
            "entry": "To 1 quart Rum 1/3    October 17th To 1 penknife 1/3    1 handkerchief 1/3    .5 Bushel Salt 1/3 "
        },
        {
            "reel_id": "58",
            "folio_page": "67D",
            "entry_id": "29a",
            "amount": 1,
            "unit_measure": "quart",
            "name": "rum",
            "item_price": ",1,3   "
        },
        {
            "reel_id": "58",
            "folio_page": "67D",
            "entry_id": "29b",
            "amount": 1,
            "name": "penknife",
            "item_price": ",1,3"
        },
        {
            "reel_id": "58",
            "folio_page": "67D",
            "entry_id": "29b",
            "amount": 1,
            "name": "handkerchief",
            "item_price": ",1,3"
        },
        {
            "reel_id": "58",
            "folio_page": "67D",
            "entry_id": "29b",
            "amount": 0.5,
            "unit_measure": "bushel",
            "name": "salt",
            "item_price": ",1,3"
        },
        {
            "reel_id": "58",
            "folio_page": "67D",
            "entry_id": "30",
            "original_entry": 1,
            "entry": "To 1 quart Rum 1/3    1 Pair Shoe buckles 1/3    November 11th  1 fine felt hat 6/8"
        },
        {
            "reel_id": "58",
            "folio_page": "67D",
            "entry_id": "30a",
            "amount": 1,
            "unit_measure": "quart",
            "name": "rum",
            "item_price": ",1,3"
        },
        {
            "reel_id": "58",
            "folio_page": "67D",
            "entry_id": "30a",
            "amount": 1,
            "unit_measure": "pair",
            "descriptor": "shoe",
            "name": "buckles",
            "item_price": ",1,3    "
        },
        {
            "reel_id": "58",
            "folio_page": "67D",
            "entry_id": "30b",
            "amount": 1,
            "unit_measure": "fine",
            "descriptor": "felt",
            "name": "hat",
            "item_price": ",6,8"
        },
        {
            "reel_id": "58",
            "folio_page": "67D",
            "entry_id": "31",
            "original_entry": 1,
            "entry": "To 1 quart Rum 1/3    1  yard Striped Linsey 3/:    December 9th To .5 Bushel Salt 1/3    2 quarts Rum 2/6"
        },
        {
            "reel_id": "58",
            "folio_page": "67D",
            "entry_id": "31a",
            "amount": 1,
            "unit_measure": "quart",
            "name": "rum",
            "item_price": ",1,3"
        },
        {
            "reel_id": "58",
            "folio_page": "67D",
            "entry_id": "31a",
            "amount": 1,
            "unit_measure": "yard",
            "descriptor": "striped",
            "name": "linsey",
            "item_price": ",3,    "
        },
        {
            "reel_id": "58",
            "folio_page": "67D",
            "entry_id": "31b",
            "amount": 0.5,
            "unit_measure": "bushel",
            "name": "salt",
            "item_price": ",1,3"
        },
        {
            "reel_id": "58",
            "folio_page": "67D",
            "entry_id": "31b",
            "amount": 2,
            "unit_measure": "quarts",
            "name": "rum",
            "item_price": ",2,6"
        },
        {
            "reel_id": "58",
            "folio_page": "67D",
            "entry_id": "32",
            "amount": 2,
            "unit_measure": "yards",
            "name": "shalloon",
            "item_price": ",5,"
        },
        {
            "reel_id": "58",
            "folio_page": "67D",
            "entry_id": "32",
            "amount": 2.25,
            "unit_measure": "yards",
            "name": "duffill",
            "item_price": ",18,"
        },
        {
            "reel_id": "58",
            "folio_page": "67D",
            "entry_id": "32",
            "amount": 1.5,
            "unit_measure": "dozen",
            "name": "buttons",
            "item_price": ",3,"
        },
        {
            "reel_id": "58",
            "folio_page": "67D",
            "entry_id": "32",
            "amount": 1,
            "unit_measure": "stick",
            "name": "mohair",
            "item_price": ",,6"
        },
        {
            "reel_id": "58",
            "folio_page": "67D",
            "entry_id": "32",
            "amount": 1,
            "unit_measure": "ounce",
            "name": "thread",
            "item_price": ",,6"
        },
        {
            "reel_id": "58",
            "folio_page": "67D",
            "entry_id": "33",
            "original_entry": 1,
            "entry": "To .5 pound gun powder 1/3    ½ Gallon Rum 3/:    December 23d To .5 Gallon Rum 3/:"
        },
        {
            "reel_id": "58",
            "folio_page": "67D",
            "entry_id": "33a",
            "amount": 0.5,
            "unit_measure": "pound",
            "descriptor": "gun",
            "name": "powder",
            "item_price": ",1,3"
        },
        {
            "reel_id": "58",
            "folio_page": "67D",
            "entry_id": "33a",
            "amount": 0.5,
            "unit_measure": "gallon",
            "name": "rum",
            "item_price": ",3,    "
        },
        {
            "reel_id": "58",
            "folio_page": "67D",
            "entry_id": "33b",
            "amount": 0.5,
            "unit_measure": "gallon",
            "name": "rum",
            "item_price": ",3, "
        },
        {
            "reel_id": "58",
            "folio_page": "67D",
            "entry_id": "34",
            "challenges": 1,
            "entry": "Total ",
            "comments": "Account total"
        },
        {
            "reel_id": "58",
            "folio_page": "67C",
            "entry_id": "1",
            "challenges": 1,
            "comments": "Marginalia"
        },
        {
            "reel_id": "58",
            "folio_page": "67C",
            "entry_id": "2",
            "challenges": 1,
            "entry": "Balance to Liber C",
            "comments": "Account Balance to"
        },
        {
            "reel_id": "58",
            "folio_page": "67C",
            "entry_id": "3",
            "challenges": 1,
            "entry": "Total",
            "comments": "Account total"
        },
        {
            "reel_id": "58",
            "folio_page": "67C",
            "entry_id": "4",
            "challenges": 1,
            "entry": "William Prestley 1015 pounds tobacco\r\n                            31  off\r\n                          984 pounds tobacco at L20s",
            "comments": "Person, tobacco transaction"
        },
        {
            "reel_id": "58",
            "folio_page": "67C",
            "entry_id": "5",
            "challenges": 1,
            "entry": "Balance carried to Liber C",
            "comments": "Account Balance to"
        },
        {
            "reel_id": "58",
            "folio_page": "67C",
            "entry_id": "6",
            "challenges": 1,
            "entry": "Total",
            "comments": "Account total"
        }
    ]
}